0,350.624800000, 2.422800000,353.047600000
1,356.734700000, 2.402600000,359.137300000
2,308.329900000, 2.369300000,310.699200000
3,355.902200000, 2.404900000,358.307100000
4,338.454300000, 2.690200000,341.144500000
5,365.258100000, 2.366900000,367.625000000
