method,template_matching(ms), minMaxLoc(ms), X, Y
0, 8.636000000, 0.513600000, 9.149600000
1, 8.637200000, 0.509200000, 9.146400000
2, 6.579300000, 0.508500000, 7.087800000
3, 8.542900000, 0.499700000, 9.042600000
4, 9.436400000, 0.483400000, 9.919800000
5,13.169000000, 0.480100000,13.649100000
