method,template_matching(ms), minMaxLoc(ms), X, Y
0,22.276100000, 0.563400000,22.839500000
1,22.033400000, 0.542500000,22.575900000
2,16.480100000, 0.533800000,17.013900000
3,21.824000000, 0.527100000,22.351100000
4,21.638200000, 0.528900000,22.167100000
5,28.707500000, 0.528400000,29.235900000
